<?xml version="1.0" encoding="utf-8"?>
<!-- Generator: Adobe Illustrator 16.0.0, SVG Export Plug-In . SVG Version: 6.00 Build 0)  -->
<!DOCTYPE svg PUBLIC "-//W3C//DTD SVG 1.1//EN" "http://www.w3.org/Graphics/SVG/1.1/DTD/svg11.dtd">
<svg version="1.1" id="Layer_1" xmlns="http://www.w3.org/2000/svg" xmlns:xlink="http://www.w3.org/1999/xlink" x="0px" y="0px"
	 width="500px" height="500px" viewBox="0 0 500 500" enable-background="new 0 0 500 500" xml:space="preserve">
<g>
	<path fill-rule="evenodd" clip-rule="evenodd" fill="#707070" d="M494.91992,116.76758
		c-2.37793,10.78857-5.56543,21.2832-12.81738,29.91943c-4.09277,4.87451-8.66699,9.34814-13.0791,13.9502
		c-4.40625,4.59619-8.88086,9.12695-13.16699,13.5249c-43.55957-43.59229-86.71387-86.77734-129.94629-130.0415
		c16.30176-16.69629,31.28809-35.75635,57-39.3623c4.78711,0,9.57422,0,14.36035,0c0.41797,0.22021,0.81738,0.58496,1.25488,0.64111
		c15.21875,1.94922,27.4834,9.34912,38.07227,20.14551c12.72266,12.97461,25.7998,25.60449,38.43457,38.66211
		c4.39551,4.5415,8.86426,9.4502,11.62793,15.02051c3.62012,7.29688,5.58496,15.41504,8.25977,23.18018
		C494.91992,107.19434,494.91992,111.98096,494.91992,116.76758z"/>
	<path fill-rule="evenodd" clip-rule="evenodd" fill="#707070" d="M4.7583,493.00586
		c3.19043-12.12891,6.4917-24.22949,9.5498-36.39063c9.01123-35.83789,17.92383-71.69922,26.88867-107.54688
		c0.22656-0.90332,0.61328-1.76758,1.04785-2.99805c7.61914,7.91699,16.61572,12.61621,27.56836,14.38965
		c-2.61621,20.41895,3.10889,38.08887,17.62012,52.39063c14.39795,14.18848,31.98096,19.75098,51.80615,16.94336
		c1.74658,5.21191,2.89746,10.24121,5.09668,14.76074c2.20068,4.51758,5.44873,8.52832,8.53223,13.20996
		c-7.12109,1.81152-14.42627,3.69336-21.74268,5.5293c-40.63135,10.19238-81.2666,20.36914-121.89502,30.57422
		c-0.88477,0.22168-1.70654,0.69531-2.55762,1.05176C6.03467,494.28223,5.396,493.64355,4.7583,493.00586z"/>
	<path fill-rule="evenodd" clip-rule="evenodd" fill="#707070" d="M346.47559,109.97754
		c14.49414,14.49365,28.77734,28.7793,43.19141,43.19482c-0.46777,0.521-1.16797,1.37744-1.94629,2.15479
		c-77.94434,77.93408-155.90137,155.85645-233.83643,233.80078c-9.47461,9.47559-20.44531,13.30176-33.51904,9.0166
		c-19.55078-6.41016-26.95361-31.33008-14.14404-47.42676c1.68359-2.11426,3.51758-4.12695,5.42969-6.04004
		c77.24658-77.27734,154.51025-154.53711,231.7749-231.79492C344.53613,111.77246,345.7002,110.71436,346.47559,109.97754z"/>
	<path fill-rule="evenodd" clip-rule="evenodd" fill="#707070" d="M303.4834,66.46094
		c7.26855,7.26465,14.25293,14.24463,21.46875,21.45459c-0.93359,0.99316-1.97754,2.15967-3.08105,3.26367
		C244.3623,168.68115,166.84326,246.17334,89.35596,323.69629c-3.71924,3.7207-7.61572,6.79102-13.22119,6.66016
		c-6.35498-0.14648-11.07861-3.08984-13.70996-8.75879c-2.52832-5.45215-1.97168-10.88867,1.75439-15.77734
		c0.96143-1.2627,2.11377-2.3877,3.24023-3.51367c77.62354-77.61475,155.25439-155.22314,232.88721-232.82861
		C301.31348,68.47266,302.37012,67.51563,303.4834,66.46094z"/>
	<path fill-rule="evenodd" clip-rule="evenodd" fill="#707070" d="M411.78027,174.71826
		c7.27344,7.28955,14.24805,14.28174,21.47656,21.52734c-0.96875,1.021-2.13086,2.2998-3.34863,3.51855
		C352.50488,277.15332,275.0918,354.5332,197.7085,431.94141c-3.58301,3.58398-7.28125,6.67773-12.70947,6.70703
		c-6.34912,0.03516-11.1123-2.68359-13.98877-8.29395c-2.87646-5.61328-2.27197-11.11035,1.4502-16.19336
		c0.93604-1.27734,2.10449-2.39453,3.23096-3.52051c77.62012-77.62402,155.24609-155.24023,232.87598-232.854
		C409.5752,176.77979,410.62695,175.81836,411.78027,174.71826z"/>
</g>
</svg>
